<?xml version="1.0" standalone="no"?>
<!DOCTYPE svg PUBLIC "-//W3C//DTD SVG 1.1//EN" "http://www.w3.org/Graphics/SVG/1.1/DTD/svg11.dtd">
<svg xmlns="http://www.w3.org/2000/svg">
<metadata>Copyright (C) 2016 by original authors @ fontello.com</metadata>
<defs>
<font id="land-to" horiz-adv-x="1000" >
<font-face font-family="land-to" font-weight="400" font-stretch="normal" units-per-em="1000" ascent="850" descent="-150" />
<missing-glyph horiz-adv-x="1000" />
<glyph glyph-name="car-lines" unicode="&#xe800;" d="M1842 16h-1056l-93-3c0 19-4 151-85 233-44 44-104 67-176 67-119 0-178-56-206-104-43-73-40-164-21-204l-102 12c-41 4-76 31-91 70l-7 17v172c1 6 24 73 101 130h19c-36-21-63-50-80-94-1-1 0-1 0-2 0-1 1-1 2-1 7-1 14-1 22-1 76 0 199 35 279 139l0 0c145 28 232 32 233 32 1 0 1 1 2 1 0 1 1 1 1 2 0 0 0 7 8 19l3 5c5 7 11 14 20 23l4 3c11 11 27 23 48 38 42 29 320 179 518 234 190 54 643 11 647 11 1 0 3 1 3 2 0 1-1 3-2 3-5 0-458 42-649-11-198-56-477-206-520-235-21-14-37-27-49-38-157 181-275 273-401 314 0 0-2 0-2-1-1-1-1-2 0-3 32-44 70-78 115-118 52-47 111-101 177-184 0 0-1-1-1-1l-47-70c0-1 0-2 0-3-30-4-107-16-108-16-87-7-159-16-214-43h-29c0 0 0 0-1-1-82-60-104-132-104-132 0-1 0-1 0-1v-174c0 0 0 0 0-1l7-17c16-40 53-68 96-73l105-12c0 0 0 0 1 0h0c0 0 0 0 0 0 0 0 1 0 1 1 0 0 0 0 0 0 0 0 1 0 1 0l15 19c0-2 0-3 1-5 24-99 113-165 211-165 17 0 35 2 52 7 88 21 150 94 163 178l37-27c0 0 0 0 0 0 0 0 1 0 1 0 0 0 0 0 0 0 0 0 0 0 0 0 0 0 0 0 0 0l95 4h1056c1 0 2 1 2 2 1 1 0 2-2 2z m-1511 716c-42 37-79 70-110 111 121-42 237-134 391-311-10-10-18-19-22-26-4 0-8 0-13 0-22-1-44 8-57 26-71 92-134 149-189 200z m176-192c3-4 6-7 9-11 14-18 37-29 61-28 3 0 7 1 9 1-5-9-6-15-7-18-9 0-51-3-117-13l45 69z m-164-91c-86-110-220-141-292-135 42 105 148 122 292 135z m146-588c-114-28-229 41-258 155-28 113 41 229 155 257 18 4 35 6 51 6 96 0 183-64 207-161 28-113-41-229-155-257z m165 180c3 25 2 52-5 79-29 116-147 187-263 158-113-28-183-139-161-252l-15-19c-19 39-22 129 21 200 27 46 84 101 201 101 72 0 130-22 173-66 77-78 84-201 84-227l-35 26z m-140 153c-34 20-74 26-112 17-38-10-71-34-91-68-20-33-26-73-17-111 10-38 34-71 67-91 24-14 50-22 76-22 12 0 24 2 36 5 39 9 71 33 91 67 21 34 27 73 17 112-9 38-33 70-67 91z m46-200c-20-33-51-56-88-65-37-10-75-4-108 16-33 20-56 51-65 88-9 37-3 75 16 108 20 33 51 56 88 65 12 3 23 4 35 4 25 0 51-7 74-20 32-20 56-51 65-89 9-37 3-75-17-107z m925 794c-280 0-408-73-532-142-25-14-50-28-76-42-31 9-60-5-88-45-2-3-4-6-6-9-12-16-20-28-18-39 1-5 5-9 12-12 0 0 0 0 0 0 14-4 27-5 39-5 14 0 25 2 35 6 0 0 1 0 1 0 0 0 0 0 0 0 284 25 586 34 588 34 2 0 2 1 3 2l45 248c0 1 0 2 0 2-1 1-2 2-3 2z m-706-284c-5 2-8 5-9 9-2 8 7 20 17 35 2 2 4 5 6 9 29 41 59 54 91 39 8-18 8-35 0-53-19-50-67-49-105-39z m659 35c-24 0-307-9-576-33 12 8 21 20 27 35 9 19 9 38 0 58-1 0-1 1-2 1-1 1-2 1-3 2 24 13 49 26 72 39 123 70 250 142 527 142l-45-244z m556 182c-2 0-200 62-428 67-1 0-3-1-3-2 0-1-12-96-11-235 0-1 1-1 1-2 1 0 1-1 2-1h0c229 8 398 21 399 21 2 0 3 1 2 2 0 2-1 3-2 3-2 0-170-14-397-21-1 126 9 215 11 230 226-6 422-67 424-67 1-1 3 0 3 2 1 1 1 2-1 3z m239-74c-183 99-452 158-706 159 0 0 0 0 0 0 0 0-1 0-3 0 0 0 0 0 0 0 0 0 0 0 0 0-21 0-158 0-251-13-134-20-305-96-508-227-83-44-114-74-114-76-1 0-1-1 0-2 0-1 1-1 2-1 0 0 0 0 0 0l87 3c-4-14-16-65-15-112 0-2 0-4 0-6-49-8-98-17-146-26-1 0-2-1-1-2 0 0 1-1 1-1 0 0 0 0 0 0 49 10 98 19 147 27 1-60 8-191 13-227 0-4 1-8 1-12 4-37 10-82 50-82h678c0 0 1 0 2 1 0 0 0 1 0 2-12 56-3 298 6 410l1 3c182 16 336 23 435 23 1 0 2 0 2 1 0 1-1 1-2 1-99 0-253-7-435-22l14 68 39 265c252-1 520-60 702-159 0 0 1 0 1 0 1 0 2 0 2 1 0 2 0 3-2 4z m-1575-155c7 8 44 34 101 65l-17-61-84-4z m813-29c-9-110-18-347-7-409h-674c-36 0-41 42-45 78-1 4-1 8-2 12-4 36-11 167-13 227 173 30 349 54 513 72 0 0 0 0 0 0 6-9 21-12 38-12 15 0 33 2 48 4l8 1c10 1 18 1 25 2 31 3 44 4 44 19 0 0 0 0 0 2 22 2 44 4 65 5l0-1z m-71-4c1-1 1-2 1-2 0-9-9-10-40-13-7-1-15-2-24-3l-8 0c-27-4-68-8-80 3 0 0 0 0 1 0 51 5 102 10 150 15z m-144-12c33 15 49 17 84 21 40 3 54-3 58-7 0 0 0 0 0 0-46-4-93-9-142-14z m230 91l-14-70c-22-2-44-4-67-6 0 0-1 2-2 2-7 6-23 12-63 8-37-3-55-5-95-26-1 0-1 0-1-1-164-18-340-42-513-71 0 1 0 3 0 5-1 49 13 104 15 113 1 0 1 1 1 1l18 67c1 0 3 1 3 2 1 0 2 0 3 1 0 0 1 0 1 1 201 129 370 205 503 225 92 12 229 12 250 12l-39-263z m-1053-344c-4 3-9 4-13 3l-27-7c-4-1-8-4-10-8-1-4-1-9 1-13l27-50c2-4 6-6 11-6 1 0 2 0 3 0 6 1 9 6 10 12l3 58c0 4-2 8-5 11z m-3-69c-1-5-4-7-6-7-3-1-7 0-9 4l-27 50c-2 3-2 6-1 9 2 2 4 4 7 5l27 6c3 1 6 0 8-2 3-2 4-5 4-8l-3-57z m35-110c-3 5-8 8-14 6-6-1-9-6-10-12l-3-57c-1-5 2-9 5-12 3-2 6-4 10-4 1 0 2 0 3 1l27 6c5 2 8 4 10 9 2 4 2 9 0 12l-28 51z m23-61c-1-3-4-5-6-5l-27-7c-3-1-6 0-9 2-2 2-4 5-4 8l4 58c0 5 3 7 6 8 0 0 1 0 2 0 2 0 5-2 7-5l27-50c1-3 1-6 0-9z m73 158c-1 4-4 8-8 10-4 1-9 1-13-1l-50-27c-5-3-8-8-6-14 1-6 5-9 12-10l57-3c1 0 1 0 1 0 4 0 9 2 11 5 3 4 4 9 3 13l-7 27z m0-36c-2-3-5-4-8-4l-57 3c-5 1-7 3-8 6-1 3 0 7 4 9l50 27c2 1 3 1 5 1 1 0 3 0 4 0 3-2 5-4 6-7l6-27c1-3 0-6-2-8z m-169-22c-1 6-6 10-12 10l-58 3c-5 1-9-1-12-5-3-4-4-8-3-13l7-27c1-4 4-8 8-9 2-1 4-2 6-2 3 0 5 1 7 2l50 27c6 3 8 8 7 14z m-59-37c-3-2-6-2-9 0-3 1-5 3-5 6l-7 27c-1 3 0 6 2 9 2 2 5 3 7 3 0 0 1 0 1 0l57-3c5 0 7-3 8-6 1-3 0-7-4-9l-50-27z m128 92c2-1 4-2 7-2 3 0 6 1 9 3l42 38c4 4 6 8 5 13 0 4-3 8-7 11l-23 14c-4 2-9 3-13 1-4-2-7-5-9-9l-16-55c-2-5 0-11 5-14z m-1 13l17 54c0 3 2 6 5 7 3 1 7 0 9-1l23-14c3-2 5-5 5-8 0-3-1-6-3-8l-43-38c-3-3-7-3-10-1-2 1-4 5-3 9z m-45-96c-5 3-11 2-15-1l-44-39c-3-4-5-8-5-13 1-4 3-8 7-11l24-14c2-1 5-2 7-2 2 0 4 1 6 1 4 2 7 5 8 10l17 54c2 6 0 11-5 15z m0-13l-16-55c-1-3-3-6-6-6-3-2-6-1-9 0l-23 14c-3 2-5 5-5 8 0 3 1 6 4 8l43 38c1 2 3 2 5 2 2 0 3 0 4-1 2-1 5-4 3-8z m134 20l-55 17c-6 1-11-1-15-6-3-5-2-11 2-15l38-43c3-3 7-5 11-5 0 0 1 0 1 0 4 1 9 3 11 7l14 24c3 4 3 8 2 13-2 4-5 7-9 8z m4-19l-15-23c-1-3-4-5-7-5-3 0-6 1-8 3l-39 43c-2 4-2 7 0 10 1 2 3 4 6 4 1 0 2 0 3-1l54-16c3-1 6-3 7-6 0-3 0-6-1-9z m-226 87l55-16c1-1 2-1 4-1 4 0 8 2 10 6 4 5 3 11-1 15l-38 43c-3 4-8 5-13 5-4 0-8-3-11-7l-14-24c-2-4-3-8-1-12 1-4 5-8 9-9z m-4 19l14 24c2 3 5 4 7 4 1 0 1 0 1 0 3 0 6-1 8-3l38-43c3-3 2-7 1-9-2-3-5-5-9-3l-55 16c-3 1-5 3-6 6-1 3-1 6 1 8z" horiz-adv-x="2235" />
<glyph glyph-name="howto-1" unicode="&#xe801;" d="M5092 468c0 22-8 44-22 62l-188 242c-14 18-32 30-54 34l-24 4c-130 26-264 40-396 40h-32c-96 0-194-8-288-24l-92-16c-152-26-298-78-430-158l-142-86-148-32c-36-8-72-20-104-36-92-44-172-106-238-184-20-24-32-56-32-90v-70c0-22 6-42 14-62 22-42 64-72 112-76l70-6c0 0 2 0 2 0 12 0 20 8 22 20 2 12-8 22-20 24l-70 6c-32 2-62 22-76 52-6 14-10 28-10 42v70c0 22 8 44 22 60 62 74 136 132 224 174 30 14 62 26 94 32l154 34 150 90c128 76 268 128 414 152l92 16c92 16 188 24 282 24h32c130 0 260-12 388-38l26-6c10-2 20-8 28-18l188-242c8-10 12-22 12-36v-92l4-6c46-76 56-170 24-254l-2-6c-4-12 2-24 12-28 12-4 24 2 28 12l2 6c36 94 26 200-26 286v84z m-506-406h-986c-12 0-22-10-22-22 0-12 10-22 22-22h986c12 0 22 10 22 22 0 12-10 22-22 22z m-1240 170c-106 0-190-86-190-190 0-106 86-190 190-190 106 0 190 86 190 190 0 104-84 190-190 190z m0-338c-80 0-146 66-146 146 0 80 66 146 146 146 80 0 146-66 146-146 0-80-66-146-146-146z m1492 338c-106 0-190-86-190-190 0-106 86-190 190-190 106 0 190 86 190 190 0 104-86 190-190 190z m0-338c-80 0-146 66-146 146 0 80 66 146 146 146 80 0 146-66 146-146 0-80-66-146-146-146z m-2336 604c-8 32-36 56-70 58l-154 14c-48 4-92 28-122 64l-116 138c-14 16-32 28-54 32l-24 6c-130 26-264 40-396 40h-32c-96 0-194-8-288-24l-112-18c-140-24-272-74-392-152l-166-110-108-12c-58-6-116-18-172-34l-184-50-82-144c-18-24-30-56-30-88v-70c0-22 6-42 14-62 22-42 66-72 112-76l138-6c0 0 0 0 0 0 12 0 22 10 22 22 0 12-8 22-22 22l-136 6c-32 2-62 22-76 52-6 14-10 28-10 42v70c0 22 8 44 22 60l2 2 74 132 166 46c54 14 108 26 164 32l118 14 176 116c116 74 242 122 376 144l112 18c92 16 188 24 282 24h32c130 0 260-12 388-38l26-6c10-2 20-8 28-18l118-140c38-46 92-74 152-80l154-14c14-2 26-12 30-26l34-132 0-2c30-68 36-146 18-220l-18-72h-220c-12 0-22-10-22-22 0-12 10-22 22-22h254l26 104c20 82 14 168-20 246l-34 134z m3382-266c-106 0-190-86-190-190 0-106 86-190 190-190 106 0 190 86 190 190 0 104-86 190-190 190z m0-338c-80 0-146 66-146 146 0 80 66 146 146 146 80 0 146-66 146-146 0-80-66-146-146-146z m-3848 338c-106 0-190-86-190-190 0-106 86-190 190-190 106 0 190 86 190 190 0 104-86 190-190 190z m0-338c-80 0-146 66-146 146 0 80 66 146 146 146 80 0 146-66 146-146 0-80-66-146-146-146z m5878 476l-34 128c-8 32-36 56-70 58l-154 14c-48 4-92 28-122 64l-114 138c-14 16-32 28-54 32l-24 6c-130 26-264 40-396 40h-32c-96 0-194-8-288-24l-112-18c-140-24-272-74-392-152l-166-110-108-12c-58-6-116-18-172-34l-182-52-82-144c-20-24-32-56-32-88v-70c0-22 6-42 14-62 22-42 64-72 112-76l138-6c0 0 0 0 0 0 12 0 22 10 22 22 0 12-8 22-22 22l-136 6c-32 2-62 22-76 52-6 14-10 28-10 42v70c0 22 8 44 22 60l2 2 74 132 166 46c54 14 108 26 164 32l118 14 176 116c114 74 240 124 374 146l112 18c92 16 188 24 282 24h32c130 0 260-12 388-38l26-6c10-2 20-8 28-18l118-140c38-46 92-74 152-80l154-14c14-2 26-12 30-26l34-132 0-2c30-68 36-146 18-220l-18-72h-220c-12 0-22-10-22-22 0-12 10-22 22-22h254l26 104c20 86 14 174-20 252z m-742-308h-1034c-12 0-22-10-22-22 0-12 10-22 22-22h1034c12 0 22 10 22 22 0 12-10 22-22 22z m244 170c-106 0-190-86-190-190 0-106 86-190 190-190 106 0 190 86 190 190 0 104-86 190-190 190z m0-338c-80 0-146 66-146 146 0 80 66 146 146 146 80 0 146-66 146-146 0-80-66-146-146-146z" horiz-adv-x="7946" />
<glyph glyph-name="howto-2" unicode="&#xe802;" d="M363 254c-129 0-260-27-260-78v-71c-60-13-103-34-103-64v-113c0-52 131-78 260-78s260 27 260 78v71c60 14 103 34 103 64v113c0 51-131 78-260 78z m-237-113c8-5 18-10 31-15v-87c-23 10-31 19-31 24v78z m-39-63c5 1 11 2 16 4v-17c0-43 91-69 196-76-13 0-26-1-39-1-65 0-126 6-173 19-51 13-64 29-64 37s13 19 64 34z m85-45v89c13-4 27-8 44-11v-88c-9 1-18 4-26 7-7 0-13 1-18 3z m60-14v89c15-3 31-4 46-7v-90c-17 3-32 5-46 8z m232-5c-15-1-31-4-47-4v90c16 1 32 2 47 4v-90z m0-24c0 0 0 0 0 0 0 0 0 0 0 0z m-39-2c0 0-1-2 0 0-1-2 0 0 0 0z m30 2c0 0 0-1 0 0 0-1 0 0 0 0z m-10-1c0 0 0 0 0 0 0 0 0 0 0 0z m-43 21c-13 0-26-1-40-1-3 0-4 0-7 0v89c3 0 4 0 7 0 13 0 27 0 40 2v-90z m-61-1c-16 0-31 1-47 2v90c16-1 31-3 47-3v-89z m-11-24c0 0 0 0 0 0 0 0 0 0 0 0z m-275-80c-24 10-32 19-32 24v78c8-5 19-10 32-15v-87z m58-19c-9 2-18 4-26 7-6 1-13 4-18 5v88c13-3 27-7 44-10v-90z m63-9c-17 2-33 4-47 7v88c15-2 31-4 47-6v-89z m62-2c-16 0-31 1-47 2v89c16-2 31-3 47-3v-88z m62 0c-13 0-26-2-40-2-2 0-4 0-6 0v90c2 0 4 0 6 0 13 0 27 0 40 1v-89z m63 5c-16-1-31-4-47-4v90c16 1 31 2 47 4v-90z m-17 105c0 0 0 0 0 0 0 0 0 0 0 0z m17 0c0 0 0 0 0 0s0 0 0 0l0 0z m31 0c0 0 0 0 0 0 0 0 0 0 0 0z m-10 0c0 0-2 0-2 0 2 0 2 0 2 0z m-11 0c0 0-1 0-1 0 0 0 1 0 1 0z m52-95c-14-4-30-6-47-9v89c17 2 33 5 47 9v-89z m-21 96c0 0 0 0 0 0 0 0 0 0 0 0z m10 0c0 0 1 0 0 0 1 0 0 0 0 0z m79 8c0 0 0 0 0 0 0 0 0 0 0 0z m34 32c-15-4-30-7-47-10v89c17 3 32 5 47 9v-88z m8 114c-46-12-107-19-173-19s-127 6-173 19c-51 13-64 29-64 36s13 23 64 37c45 12 106 19 173 19s126-6 173-19c50-13 63-29 63-37s-13-22-63-36z m652 99v71c0 52-131 78-260 78s-260-27-260-78v-113c0-28 42-50 103-63v-30c-60-13-103-34-103-64v-113c0-52 131-78 260-78s260 27 260 78v71c60 13 103 34 103 64v113c0 30-43 52-103 64z m-433 108c46 12 107 19 173 19s126-6 173-19c51-13 64-29 64-37s-13-22-64-36c-45-12-106-20-173-20s-126 7-173 20c-50 13-63 29-63 36s13 22 63 37z m338-98v-88c-14-4-30-7-46-9v88c15 3 31 5 46 9z m39-235c-15-1-31-4-46-4v90c15 1 31 2 46 4v-90z m0-24c0 0 0 0 0 0 0 0 0 0 0 0z m-39-2c0 0 0-2 0 0 0-2 0 0 0 0z m30 2c0 0 0-1 0 0 0-1 0 0 0 0z m-10-1c0 0 0 0 0 0 0 0 0 0 0 0z m-42 21c-13 0-26-1-40-1-3 0-4 0-7 0v89c3 0 4 0 7 0 13 0 27 0 40 2v-90z m-9-25c0 0 0 0 0 0 0 0 0 0 0 0z m-10 0c0 0-2 0-2 0 2 0 2 0 2 0z m-11 0c0 0-1 0-1 0 0 0 1 0 1 0z m-32 24c-16 0-31 1-47 2v90c16-1 31-3 47-3v-89z m-11-24c0 0 0 0 0 0 0 0 0 0 0 0z m-204 145c11-2 20-3 31-4v-87c-23 10-31 19-31 24l0 67c0 0 0 0 0 0z m175 14c-13 0-26-1-41-1-2 0-4 0-6 0v89c2 0 4 0 6 0 13 0 28 0 41 2v-90z m-41-25l0 0 0 0 0 0z m-22 25c-15 0-31 1-47 3v89c16-1 32-2 47-2v-90z m-62 3c-17 1-33 3-47 6v88c15-2 31-3 47-6v-88z m-4-26c13-4 27-8 44-11v-88c-9 1-18 4-26 6-6 2-13 4-18 5v88z m35 1c0 0 0 0 0 0 0 0 0 0 0 0z m27-1c0 0-1 0 0 0-1 0 0 0 0 0z m-13 0c0 0-1 0 0 0-1 0 0 0 0 0z m11-13c15-3 31-4 46-7v-90c-16 2-32 4-46 7v90z m14 11c1 0 1 0 0 0 1 0 1 0 0 0z m30 0c0 0 0 0 0 0 0 0 0 0 0 0z m17 2c0 0 0 0 0 0 0 0 0 0 0 0z m23 24v90c16 1 31 3 47 4v-90c-16-1-31-4-47-4z m-261 29c-24 10-31 19-31 25v78c7-6 18-11 31-16v-87z m14-7v89c13-4 27-8 44-11v-88c-9 1-18 4-26 6-6 0-11 3-18 4z m46-35c0 0 0 0 0 0 0 0 0 0 0 0z m-28-54c5 1 11 2 16 4v-17c0-43 91-69 196-76-13 0-26-1-39-1-65 0-126 6-173 19-50 13-63 29-63 37s13 19 63 34z m-32-173c-24 10-31 19-31 24v78c7-5 18-10 31-15v-87z m58-19c-9 2-18 4-26 7-6 1-13 4-18 5v88c13-3 27-7 44-10v-90z m63-9c-17 2-33 4-47 7v88c15-2 31-4 47-6v-89z m62-2c-15 0-31 1-47 2v89c16-2 32-3 47-3v-88z m63 0c-13 0-26-2-41-2-2 0-4 0-6 0v90c2 0 4 0 6 0 13 0 28 0 41 1v-89z m62 5c-16-1-31-4-47-4v90c16 1 31 2 47 4v-90z m-17 105c0 0 0 0 0 0 0 0 0 0 0 0z m79-95c-14-4-30-6-46-9v89c16 2 32 5 46 9v-89z m-20 96c0 0 0 0 0 0 0 0 0 0 0 0z m9 0c0 0 1 0 0 0 1 0 0 0 0 0z m79 8c0 0 0 0 0 0 0 0 0 0 0 0z m34 32c-14-4-30-7-47-10v89c17 3 33 5 47 9v-88z m8 114c-46-12-107-19-173-19-13 0-26 0-39 1 105 8 196 34 196 75v17c5-1 10-2 16-4 50-13 63-28 63-36s-13-20-63-34z m762 192v114c0 52-132 78-260 78s-261-28-261-78v-72c-59-13-102-34-102-64v-113c0-28 41-50 102-63v-30c-59-13-102-34-102-64v-113c0-52 131-78 260-78s260 27 260 78v71c60 13 103 34 103 64v113c0 29-42 51-103 64v30c61 13 103 35 103 63z m-95-37c-15-4-30-7-47-9v88c17 3 32 5 47 9v-88z m-63-281c-15-1-31-4-47-4v90c16 1 32 2 47 4v-90z m0-24c0 0 0 0 0 0 0 0 0 0 0 0z m-39-2c-1 0-1-2 0 0-1-2-1 0 0 0z m30 2c-1 0-1-1 0 0-1-1-1 0 0 0z m-10-1c0 0 0 0 0 0 0 0 0 0 0 0z m-43 21c-13 0-26-1-40-1-3 0-4 0-7 0v89c3 0 4 0 7 0 13 0 27 0 40 2v-90z m-8-25c0 0-1 0 0 0-1 0 0 0 0 0z m-10 0c0 0-2 0-2 0 0 0 0 0 2 0z m-11 0c0 0-1 0-1 0 0 0 0 0 1 0z m-34 24c-15 0-31 1-46 2v90c15-1 31-3 46-3v-89z m-9-24c-1 0-1 0 0 0-1 0-1 0 0 0z m-205 145c10-2 19-3 31-4v-87c-23 10-31 19-31 24l0 67c0 0 0 0 0 0z m214 148c-15 0-31 1-46 2v90c15-1 31-2 46-2v-90z m-9-24c-1 0-1 0 0 0-1 0-1 0 0 0z m-31-110c-13 0-26-1-40-1-3 0-4 0-7 0v89c3 0 4 0 7 0 13 0 27 0 40 2v-90z m-62 0c-16 0-31 1-47 3v89c16-1 31-2 47-2v-90z m-63 3c-17 1-32 3-47 6v88c16-2 32-3 47-6v-88z m-2-26c13-4 27-8 44-11v-88c-9 1-18 4-26 6-7 2-13 4-18 5v88z m35 1c0 0 0 0 0 0 0 0 0 0 0 0z m26-1c0 0 0 0 0 0 0 0 0 0 0 0z m-13 0c0 0 0 0 0 0 0 0 0 0 0 0z m10-13c16-3 31-4 47-7v-90c-17 2-32 4-47 7v90z m16 11c0 0 0 0 0 0 0 0 0 0 0 0z m28 0c2 0 2 0 0 0 2 0 2 0 0 0z m17 2c0 0 0 0 0 0 0 0 0 0 0 0z m24 24v90c15 1 31 3 47 4v-90c-15-1-30-4-47-4z m30 109c1 0 1 0 0 0 1 0 1 0 0 0z m57 25c-13 0-26-1-40-1-3 0-4 0-7 0v90c3 0 4 0 7 0 13 0 27 0 40 1v-90z m-18-25c0 0-2 0-2 0 0 0 0 0 2 0z m-11 0c0 0-1 0-1 0 0 0 0 0 1 0z m21 0c0 0-1 0 0 0-1 0 0 0 0 0z m-17-14c17 3 33 5 47 9v-88c-14-4-30-7-47-9v88z m47 17c0 0 0 0 0 0 0 0 0 0 0 0z m-21-1c0 0 0 0 0 0 0 0 0 0 0 0z m11 0c0 0 0 0 0 0 0 0 0 0 0 0z m50 4c0 0 0 0 0 0 0 0 0 0 0 0z m-9 0c-1 0-1 0 0 0-1 0-1 0 0 0z m-10-2c0 0 0 0 0 0 0 0 0 0 0 0z m-28 21v90c16 1 32 3 47 4v-90c-15-1-31-3-47-4z m-228 202c45 11 106 19 173 19s126-6 173-19c50-13 63-29 63-37 0-6-13-22-63-36-46-12-107-20-173-20s-127 7-173 20c-51 13-64 29-64 36 0 8 14 24 64 37z m88-109v-90c-17 1-32 4-47 6v89c16-3 31-4 47-5z m-62 7v-88c-9 1-19 4-26 6-7 2-13 4-19 6v88c15-5 29-8 45-12z m-90 32c8-6 18-11 31-16v-87c-23 10-31 19-31 24v79z m-38-64c5 1 11 2 16 4v-17c0-43 91-69 196-76-13 0-26-1-39-1-65 0-126 7-173 20-51 13-64 28-64 36s13 19 64 34z m-34-173c-23 10-31 19-31 25v78c8-6 18-11 31-16v-87z m16-7v89c13-4 27-8 44-11v-88c-9 1-18 4-26 6-6 0-13 3-18 4z m44-35c0 0 0 0 0 0 0 0 0 0 0 0z m-26-54c5 1 11 2 16 4v-17c0-43 91-69 196-76-13 0-26-1-39-1-65 0-126 6-173 19-51 13-64 29-64 37s13 19 64 34z m-34-173c-23 10-31 19-31 24v78c8-5 18-10 31-15v-87z m59-19c-9 2-18 4-26 7-7 1-13 4-18 5v88c13-3 27-7 44-10v-90z m62-9c-17 2-32 4-47 7v88c16-2 32-4 47-6v-89z m63-2c-16 0-31 1-47 2v89c16-2 31-3 47-3v-88z m62 0c-13 0-26-2-40-2-3 0-4 0-7 0v90c3 0 4 0 7 0 13 0 27 0 40 1v-89z m63 5c-16-1-32-4-47-4v90c15 1 31 2 47 4v-90z m-17 105c1 0 1 0 0 0 1 0 1 0 0 0z m79-95c-14-4-30-6-47-9v89c17 2 33 5 47 9v-89z m-21 96c0 0 0 0 0 0 0 0 0 0 0 0z m11 0c0 0 0 0 0 0 0 0 0 0 0 0z m79 8c0 0 0 0 0 0 0 0 0 0 0 0z m34 32c-15-4-30-7-47-10v89c17 3 32 5 47 9v-88z m8 186c50-13 63-29 63-37s-13-22-63-36c-46-12-107-20-173-20-13 0-26 0-39 2 105 7 196 33 196 75v17c5 1 10 0 16-1z m-42 52c0 0 0 0 0 0 0 0 0 0 0 0z m-1531 282c-4 9-13 15-22 15-10 0-18-6-22-15l-56-154c-4-10 4-20 15-20 6 0 11 3 14 10l14 43h72l15-43c3-7 8-10 15-10h0c10 0 18 10 14 20l-59 154z m-49-95l17 49c4 13 8 25 10 35 2-4 3-9 5-17 3-7 4-13 6-16l17-52h-55z m701 164l0 0c10 2 18 7 25 15 5 8 7 17 7 28 0 16-5 28-17 36-11 8-29 12-55 12h-55v-190h68c20 0 36 5 48 14 11 9 17 24 17 40 0 13-3 23-10 30-5 7-15 12-28 15z m-65 63h26c14 0 23-2 30-6 6-4 9-11 9-20 0-10-3-17-9-20-5-4-16-7-28-7h-28v53z m61-130c-7-5-16-7-29-7h-32v59h31c13 0 23-2 30-6 6-5 10-12 10-22 0-11-4-18-10-24z m759 296c-13 3-26 6-40 6-18 0-34-4-47-12-13-7-23-19-31-33-6-15-10-33-10-52 0-32 7-55 22-72 14-17 35-25 62-25 14 0 29 2 40 5 6 2 10 7 10 13 0 8-8 15-16 14-3 0-5-2-8-2-8-1-15-2-23-2-18 0-33 6-42 18-9 12-14 30-14 53 0 22 5 39 15 52 11 13 24 20 42 20 8 0 16-2 22-4 3-2 7-3 9-3 7-2 13 1 16 7l1 1c3 5-1 13-8 16z" horiz-adv-x="1964" />
<glyph glyph-name="howto-3" unicode="&#xe803;" d="M2174 688c-2 18-6 34-14 50l-6 14c-14 32-36 56-66 74-26 16-56 24-86 24h-984c-24 0-48-2-72-6l-10-2c-62-10-120-30-174-62-20-12-38-24-56-38l-274-212-218-126c-62-36-116-86-158-144-36-54-56-116-56-182v-38l6-10c30-40 78-64 126-64 12 0 20 8 20 20 0 12-8 20-20 20-36 0-72 18-94 46v26c0 58 18 112 50 160 38 54 88 100 144 132l218 126 2 0 278 216c16 12 34 24 52 36 50 28 104 48 160 56l10 2c22 2 44 4 66 4h984c22 0 46-6 66-18 22-14 40-32 50-56l6-14c6-12 10-26 10-38l68-622c2-12-4-24-14-32-6-4-14-6-20-6h-80c-12 0-20-8-20-20 0-12 8-20 20-20h80c16 0 32 6 44 14 22 16 32 42 30 68l-68 622z m-478-682h-1170c-12 0-20-8-20-20 0-12 8-20 20-20h1170c12 0 20 8 20 20 0 12-8 20-20 20z m-1372 140c-82 0-148-66-148-148 0-82 66-148 148-148 82 0 148 66 148 148 2 82-66 148-148 148z m0-256c-60 0-108 48-108 108 0 60 48 108 108 108 60 0 108-48 108-108 0-60-48-108-108-108z m1570 256c-82 0-148-66-148-148 0-82 66-148 148-148 82 0 148 66 148 148 0 82-66 148-148 148z m0-256c-60 0-108 48-108 108 0 60 48 108 108 108s108-48 108-108c0-60-48-108-108-108z m-1020 650c0 26-12 52-32 70s-46 26-74 24l-60-6c-30-4-56-14-80-32l-180-144c-14-10-20-26-22-42 0-16 6-32 20-44 10-8 24-14 36-14 2 0 4 0 6 0l234 24c88 8 152 78 152 164z m-388-148c-4 0-8 0-12 4-4 4-6 10-6 12 0 2 0 8 6 12l180 144c16 14 38 22 58 24l60 6c16 2 30-4 42-14 12-10 18-24 18-40 0-64-48-118-112-124l-234-24z m2176 458h-448c-12 0-20-8-20-20 0-12 8-20 20-20h448c12 0 20 8 20 20 0 12-8 20-20 20z m-174-230h-234c-12 0-20-8-20-20 0-12 8-20 20-20h234c12 0 20 8 20 20 0 10-8 20-20 20z" horiz-adv-x="2682" />
<glyph glyph-name="item-1" unicode="&#xe804;" d="M406 369l-68 53v29 83 53 30 30 38l-53 30v22l-9 8 9 22-9 38-21 45h-90l-22-45-8-38 8-23-8-7v-23l-52-29v-38-30-30-53-83-30l-68-53v-90l-15-7 8-113h9v-23h45l-9-159 24-8v-45h59v-15h24v-8l8-53h90 8 9l8 8h8l9 8h8l8 9 9 8 8 8 8 9v8l8 8v5 8 9h9v8 8 9 8 8l15 9v158h45v23h8l8 113-23 9-5 81z m-75-98h-45v75h75v-60l-30-15z m-271 75h15 60v-75h-52l-23 15v60z m90 0h120v-75h-120v75z m-22 188l8 8h150l9-8v-83-54h-167v54 83z m0 83v8l3 9h4 150l8-9v-8h-165z m0 53l30 15h15 75 8l30-23 9-15h-167v23z m45 105l8 15 9 23h43l8-23v-23l-8-15v-15l15-15v-22h-75v22l15 15v15l-15 23z m-53-181l8 8h8 155l4-8v-9h-175v9z m0-30l8 8h8 159l8-8v-8h-183v8z m-22-180h15 15 165 30l23-23h-271l23 23z m-53-143l38 15h24 232l39-15v-38h-39-256-38v38z m263-248v-15c0-53-23-83-60-83-15 0-30 0-45 0 0 0-8 8-8 15 15 0 30 0 45 0 23 8 30 23 30 60h-24l-8-24-15-8v-8h-8-15-9v8l-15 8-8 24h-55v23l-15 8v159h15 210v-159l-15-8z m15 180h-225l-45 8v8h24 292v-8l-46-8z" horiz-adv-x="421" />
<glyph glyph-name="item-2" unicode="&#xe805;" d="M771 547c0 1 0 3 0 5 0 3 0 8-2 13 0 5-2 8-2 13-1 11-3 25-5 36-3 15-6 28-9 43-2 6-4 14-5 21-4 13-10 23-22 31-5 2-11 7-18 10-13 10-26 20-41 28-23 15-46 28-69 39-24 12-47 21-70 28-23 8-48 13-72 18-13 2-28 3-46 5-17 2-33 2-48 2-18 0-34-5-52-14-23-11-46-26-67-41l-4-1c-6-3-11-8-18-12l-13-9c0 0 0 0 0 0 0 0 0 0-1 0-4 1-7 1-10 3-2 0-2 1-4 1 0 4 0 7 0 10 0 5 0 8-1 13 0 5 0 10 0 18 1 27-15 33-30 38-16 2-36 5-60 5 0 0 0 0 0 0l-2 0h-15l-1 0c-2 0-4 0-5 0-4 0-8 0-12-2-8-1-14-1-19-3-15-3-28-15-27-33 0-5 0-8 0-13 0-1 0-3 0-5 0-1 0-3 0-5 0-3-1-6-1-9 0-5 0-10 0-14 0-3 0-4 0-8 0-18 0-37-2-55 0-2 0-4 0-7 0-3 0-5 0-8 0-13 0-25 0-38 0-16 0-33 0-47 0-5 0-12 0-19l0-1c-8-18-13-40-15-59 0 0 0 0 0 0 0 0 0-2 0-2l0-1v-194l0 0c0-2 0-5 0-6 0-5 0-9 0-14 0-14 0-31 0-45 0-20 0-38 0-58 0-42 0-80 0-116 0-5 2-12 4-15 0 0 0-2 0-3 0 0 0-2 0-2-4-6-4-15-4-18 0-2 0-2 0-3 0-8 0-15 4-23 0 0 0-2 0-2-2-3-4-8-4-11 0-7 0-14 0-20 0-5 2-8 4-12 0 0 0-1 0-1 0 0 0-2 0-2 0 0 0 0 0 0 0 0 0-1 0-1-2-4-4-7-4-12 0-11 0-21 0-33 0-10 0-18 2-26 2-15 8-28 23-39 3-2 5-4 8-5 0 0 0 0 2 0l1-10 692 0 5 3c0 0 2 2 2 2 0 0 0 0 0 0 15 11 23 28 23 46 0 24 0 49 1 72 0 16 0 33 2 49 0 13 0 28 0 41 0 12 0 23 0 36 0 31 2 63 2 94l1 144c0 13 0 26 0 39 0 38 2 74 2 112 0 1 0 1 0 3 0 2 0 2 0 3l2 53 0 0z m-30-53c0 0 0 0 0 0 0-3 0-5 0-8 0-38-2-74-2-111 0-13 0-27 0-40l-1-144c0-31-2-62-2-93 0-12 0-25 0-36 0-14 0-28 0-41 0-17 0-33-2-50 0-23-1-47-1-72 0-8-3-16-12-21l-667 0c-1 0-1 1-3 1-3 4-5 4-7 5-10 7-11 13-11 17 0 8 0 16-2 24 0 10 0 20 0 30 0 0 0 2 0 2 0 0 0 1 0 1 2 2 2 5 2 8 0 0 0 2 0 4 0 5 0 11-3 18 0 5 0 11 0 16 4 8 4 18 1 28-1 3-1 7-1 10 0 3 0 5 0 8 0 0 0 2 0 2l3 3 0 7c0 0 0 1 0 3 0 5 0 11-3 19 0 0 0 2 0 2 0 36 0 74 0 117 0 19 0 37 0 57 0 15 0 31 0 46 0 5 0 10 0 13 0 2 0 3 0 6v192c0 2 0 2 0 4 1 18 4 36 13 50 1 2 1 5 1 9l0 3c0 6 0 11 0 18 0 16 0 33 0 47 0 14 0 25 0 38 0 2 0 5 0 7 0 1 0 5 0 6 0 18 0 38 2 56 0 3 0 5 0 8 0 5 0 8 0 12 0 1 0 3 0 5 2 8 3 9 3 13 0 1 0 3 0 3 0 5 2 11 2 18 0 0 2 2 3 2 5 1 10 1 17 3 3 0 6 0 11 2 2 0 3 0 5 0h10c1 0 1 0 3 0 23 0 41-2 56-7 6-2 8-3 8-3 0 0 0-2 0-5 0-8 0-15 0-20 0-5 0-10 2-13 0-5 0-10 1-13 0-13 8-18 13-20 4-1 5-1 9-3 1-2 4-3 8-5 10-3 19-3 28 3l13 10c6 3 11 8 18 12l3 1c21 13 43 28 64 40 13 6 26 9 39 9 15 0 31 0 46 0 17-1 30-1 45-4 22-4 45-10 67-17 21-6 44-16 67-26 21-10 44-23 66-36 13-8 26-18 39-28 6-5 11-8 18-13 5-3 8-8 10-13 1-7 3-15 5-22 3-13 6-27 9-41 2-11 4-23 5-34 0-5 2-8 2-13 0-3 0-7 2-12 0-1 0-3 0-5v-49z m-85-91c-5 1-12 4-17 8-5 1-8 3-13 6-5 2-10 4-14 4-12 0-23-7-28-18-2-5-5-9-7-15l-2-4c-4-14-9-29-13-45-8-28-13-58-14-84-2-12-2-23-2-34 0-5 0-12-2-18l0-2 0-2c0-5 0-10 2-15 2-11 2-24 3-37 2-15 5-30 10-44 5-14 12-32 21-48 7-10 17-15 28-15 7 0 15 2 20 7 3 3 8 6 11 10 7 5 14 9 20 14 7 5 15 15 15 32 0 14 0 31 0 45l0 32c0 31 0 62 1 93 0 18 0 38 2 62 0 4 0 8 0 12 0 6 0 15 0 21 0 16-6 30-21 35z m5-66c0-21 0-43-2-62 0-41-2-82-2-125 0-15 0-31 0-46 0-6-3-13-8-18-11-8-21-16-31-24-3-4-6-4-10-4-5 0-11 4-15 8-8 14-14 28-19 45-5 13-7 26-8 39-2 18-4 36-5 53 1 19 1 34 3 50 3 28 8 54 15 82 5 17 10 33 14 49 2 4 4 9 5 12 4 7 9 10 15 10 3 0 5 0 8-2 10-5 20-8 30-13 8-3 11-11 11-20 0-13-1-24-1-34z m-110 244c5-1 10-5 16-6 4-2 7-2 12-2 8 0 19 3 28 18 1 2 1 3 3 5 0 2 2 3 2 7 1 6 4 13 6 19 0 2 2 5 2 7 3 10 6 19 10 29 4 18 0 33-15 43-7 5-12 8-17 10-32 16-62 29-91 39-23 7-45 13-68 16-8 0-16 2-23 4-3 0-4 0-8 1l-1 0h-2c-15 0-26-3-36-9-7-5-13-10-18-15l0 0c-8-8-18-17-28-26-8-7-11-18-10-30 2-11 10-20 20-23 16-6 34-13 51-20 6-3 13-5 19-8l9-3c22-8 45-18 68-26 10-5 22-8 32-13 11-5 21-9 32-14 4-1 5-3 7-3z m-64 43c-26 10-53 19-77 29-23 10-48 18-71 28-13 5-13 20-5 26 10 9 19 17 28 27 7 5 12 9 18 14 5 4 13 7 25 7h0c8-2 21-3 33-5 23-2 44-8 65-15 31-10 61-23 89-37 5-4 10-7 15-10 8-5 11-15 8-25-3-11-8-24-12-36-3-8-6-16-10-24 0-2-1-2-1-4-3-6-8-10-13-10-2 0-4 0-7 2-6 2-13 5-19 8-23 7-45 15-66 25z" horiz-adv-x="770" />
<glyph glyph-name="item-3" unicode="&#xe806;" d="M167 26c2-1 2-3 4-5v11c20 45 34 129 38 234 1 3 1 7 1 7h-1c0 5 0 11 0 16h1c0 9 0 16 0 16h0c0 5 0 11 0 16h0c0 9 0 16 0 16h0c0 4 0 6 0 9 0 9 0 17 0 26h0c0 0 0 9 0 16h0c0 9 0 16 0 25h2c0 9 0 9 0 16h-2c-7 162-35 277-71 277-42 0-74-155-74-358 0-194 32-349 74-349 10-3 19 8 28 27z m0 27l0 0c-1 6-3 11-5 16h7c0 4 2 6 4 8-2-9-4-17-6-24z m8 33h-15c-2 5-2 10-3 16h21c-2-6-2-11-3-16z m5 32h-25c0 2 0 5-2 9h29c0-4 0-5-2-9z m4 25h-33c0 6-2 11-2 16h38c-2-5-2-10-3-16z m3 33h-39c0 5-2 10-2 16h43c0-6-2-11-2-16z m4 32h-47c0 5 0 11-2 16h49c0-5 0-11 0-16z m1 32h-50c0 6 0 11-2 17h52c0-6 0-11 0-17z m2 33h-54c0 5 0 11 0 16h56c-2-5-2-11-2-16z m0 32h-55c0 5 0 11 0 16h55c0-5 0-11 0-16z m0 41c0-3 0-5 0-9h-55c0 4 0 6 0 9 0 9 0 17 0 26h55c0-9 0-18 0-26z m0 40h-55c0 9 0 16 0 25h53c2-9 2-16 2-25z m-2 41h-53c0 9 0 17 1 26h51c1-9 1-17 1-26z m-1 42h-49c0 9 2 16 2 25h45c2-9 2-18 2-25z m-2 39h-43c0 9 2 17 2 26h37c2-9 2-17 4-26z m-4 42h-36c2 9 2 16 4 25h29c2-9 2-18 3-25z m-5 39h-25c2 9 3 16 3 25h17c1-7 3-16 5-25z m-13 60c2-6 4-13 6-18h-11c2 7 4 12 5 18z m-28-644c-33 0-58 154-58 341 0 195 25 349 58 349 9 0 16-10 23-28-2-4-4-8-5-13 0 0-2 0-2 0h2c-17-49-29-129-33-228h-2c0-9 0-9 0-17h2c0-7 0-16 0-25h0c0-9 0-16 0-16h0c0-7 0-16 0-25 0-4 0-6 0-9h0c0 0 0-9 0-16h0c0-6 0-11 0-17h0c0 0 0-9 0-16h0c0-5 0-10 0-16h-2c0 0 0-9 0-16h2c4-85 15-155 33-203h-2c0 0 2 0 2 0 1-6 3-11 5-16v0c0 0 0 0 0 0 0 0 0 0 0 0-7-18-14-29-23-29z m469 503v65l-9 16v42l-9 16v16l-5 25v16l-9 8v16l-9 16v16l-9 9-9 16v7l-9 9-9 9-9 9-9 17h-9l0 5-17 9h-80l-9-9-17-9h-9v-9h-120l-9 9h-9l-9 9-15 9h-80l-17-9-7-7h-9l-7-16-9-9-7-8-9-9v-8l-7-15-9-9v-16l-8-16v-16l-9-8v-16l-9-25v-16l-9-16v-42l-9-16v-65l-5-16v-284l9-16v-65l9-16v-42l9-16v-25l9-16v-16l9-9v-17l9-16v-16l9-9 2-14v-9l9-9 9-9 7-6 9-16h9l9-9 16-9h81l16 9 9 9h9l9 9h123v-9h9l16-9 9-9h81l16 9 9 9h9l9 16 9 9 9 9 9 9v6l9 16 9 9v16l9 16v16l9 9v17l9 16v25l9 16v42l9 16v65l9 16v282l-29 16z m-356 277h135c3-1 5-5 9-9h-144v9z m23-806v17h155l-9-17h-146z m139-16v-9l-9-9h-142l3 9v9h148z m-130 49v16l4 9h154l-3-9v-9l-4-9h-151z m7 41v25h155v-25h-155z m9 42v25h155v-25h-155z m0 39l9 25h155v-16l-4-9h-160z m6 455h149v-9h-146l-3 9z m2-55h154v-26h-149l-5 17v9z m0-358v25h154v-25h-154z m0 39l9 25h154v-16l-3-9h-160z m9 42v25h154v-25h-154z m0 41v25h154v-25h-154z m0 39v26h154v-26h-154z m0 42v16h154v-16h-154z m0 32v25h154v-25h-154z m0 42v9h154v-9h-154z m0 32v9h149l3-9h-152z m145 65h-154v16h149l3-9v-7z m-7 55h-155v17h150l3-9v-8z m-9 33h-155v9h155v-9z m-7 34h-146l-5 7h149v-7z m-9 23h-146v9l-3 9h149v-18z m-155 33l-3 9h145l4-9h-146z m-7 25l-4 7h144c2-2 4-5 6-9h-146z m-144-853c-52 42-83 225-83 446 0 229 31 414 83 455l24-7h9l5-9v-9h9v-9l7-7v-9l9-16v-9l9-16v-9l7-13v-16l9-16v-33l9-16v-41l9-16v-81l9-25v-187l-9-26v-81l-9-16v-39l-9-17v-32l-9-16v-16l-9-17v-9l-9-16v-9l-9-16v-9l-9-9v-9h-5v-5l-9-9h-7l-22-6z m106 15h-3c-4-6-6-11-9-15-8-7-15-10-24-10h-48c57 1 106 205 106 456 0 261-49 464-106 464h48c6 0 11-1 16-5v-4h6c2-1 2-1 3-3 0-2 4-4 4-4 2-2 2-2 4-3v-6c1 0 3 0 3 0 2-1 4-3 6-7 0 0 0-2 0-2v2c3-3 5-9 9-14v-4h1c2-3 4-9 8-14v-11h3c31-83 49-230 43-389 0-188-27-368-70-431z m135 0h-122l9 9 9 9h137c-6-8-13-13-33-18z m52-24c-12 2-19 9-27 24 49 0 97 194 97 439 0 196-34 370-73 422v0h0c-7 9-15 15-22 16 2 4 6 8 9 11 6 4 9 6 13 6 64 0 106-204 106-455 0-247-40-455-103-463z m54 0h-25l9 9 9 9v6l9 9 9 9v9l9 16v9l9 16v16l4 6v16l9 16v16l9 25v33l9 25v58l9 25v273l-13 16v65l-9 16v42l-9 16v16l-5 16v16l-9 17v16l-9 9v16l-8 7v9l-9 16-9 9v7l-9 9h17c68-1 108-205 108-464 0-251-40-455-105-455z" horiz-adv-x="617" />
<glyph glyph-name="item-4" unicode="&#xe807;" d="M1460 298c0 0 0 0 0 0 0 0 0 2 0 2 0 0 0 0 0 0 0 0 0 1 0 1 0 0 0 0 0 0 0 0 0 2 0 2l0 0c0 0 0 2 0 2 0 0 0 0 0 0 0 0 0 0 0 1 0 0 0 0 0 0 0 0 0 0-2 2 0 0 0 0 0 0 0 0 0 0-2 2l-664 537c-6 5-16 5-21-2-5-6-5-16 2-21l1-2-743-186-6 6c-5 5-10 5-17 4-5-4-8-8-8-15v-112c0-3 2-8 5-10l631-654c0 0 0 0 0 0 0 0 0 0 0 0 0 0 0 0 2-2 0 0 0 0 0 0 0 0 0 0 0 0 0 0 0 0 0 0 0 0 0 0 1 0 0 0 0 0 0 0 0 0 0 0 2 0 0 0 0 0 0 0 0 0 2 0 2 0 0 0 0 0 0 0 0 0 0 0 1 0 0 0 0 0 0 0 0 0 0 0 2 0 0 0 0 0 0 0 0 0 1 0 1 0l0 0 0 0c0 0 0 0 0 0 0 0 2 0 2 0 0 0 0 0 0 0 0 0 0 0 0 0 0 0 0 0 0 0 0 0 0 0 0 0 0 0 0 0 0 0 0 0 0 0 0 0l0 0c0 0 0 0 0 0 0 0 0 0 0 0l784 303c5 2 9 7 10 12l17 129c0 0 0 0 0 1 0-1 0 0 0 0z m-635 485l19-15-745-201-8 8 697 184c16 5 29 14 37 24z m-3-52c17 5 30 12 38 22l18-15-746-204-8 8 698 189z m35-28c16 5 29 12 38 22l18-15-747-211-8 8 699 196z m36-28c16 5 30 12 38 22l18-15-750-217-8 8 702 202z m35-29c16 5 29 13 37 21l19-15-750-220-8 8 702 206z m34-28c17 5 30 13 38 21l18-15-751-227-8 8 703 213z m35-28c16 5 29 13 38 21l18-15-753-232-8 8 705 218z m36-28c16 5 28 13 38 21l16-15-753-239-8 9 707 224z m35-30c16 5 28 13 37 23l17-13-755-247-8 8 709 229z m34-28c17 5 28 13 38 23l17-13-755-252-8 8 708 234z m36-28c15 5 28 13 37 23l16-13-756-259-8 9 711 240z m35-28c15 5 28 13 36 23l17-13-758-264-7 7 712 247z m35-30c14 5 28 14 36 23l16-13-757-268-9 8 714 250z m36-28c15 5 28 14 36 23l17-13-762-275-8 8 717 257z m34-28c15 5 28 14 37 23l16-13-761-280-8 8 716 262z m35-28c15 5 26 14 36 23l17-13-763-286-8 8 718 268z m36-29c15 5 27 13 37 23l16-13-766-292-8 8 721 274z m-598 484c18 3 32 12 40 22l20-15-745-195-8 9 693 179z m-721-194l603-610-2-84-601 625v69z m1384-415l-753-294 1 94 765 295-13-95z" horiz-adv-x="1460" />
<glyph glyph-name="item-5" unicode="&#xe808;" d="M1061 439v36l-10 9v18l-9 10v18l-10 10v10l-10 10v13l-10 10v10l-4 6v10l-10 10-10 10v10l-10 9v6l-10 10v8h-9l-10 10v8l-10 10-10 10v6h-10l-10 10v7l0 10-8 8h-10v10l-10 10h-9l-10 10-10 10h-10l-10 10-2 4h-10l-10 9h-10l-9 10h-10l-10 10-18 10h-10l-2 6h-63l-10-10h-18v-10h-18l-9-10h-10v-9h-10l-10-10h-10v-10h-10l-18 10h-45l-28 10h-18l-27-10h-46l-15-4-18-10h-28l-28-10-17-10-26-16-18-10-18-10-27-15-18-18-18-8-18-18-17-18-10-17-16-20-10-18-18-18-10-27-10-18-9-18-10-28-4-15-10-28v-18l-10-28v-45l-8-16v-27l10-28v-46l10-17v-24l10-28 10-18 9-27 18-18 10-18 10-27 12-16 10-18 18-18 17-18 18-18 16-17 18-10 17-18 18-10 28-10 18-18 18-9 27-10 18-10h28l17-10h28l18-10h116l28 10h18l28 10 27 10 18 10 28 9 18 10 27 10 18 18 18 10 18 18 17 17 18 18 18 18 18 18 10 18 17 17 10 18 8 18 10 18 10 28h10l10 9h10v10h17v10h18v10h10l10 10h10v4h10v10h10v10h9v17h10v18l10 10v63l10 18v89l-22 6z m-170 251l0 0 0 0c0 0 0 0 0 0z m-35 36l0 0 0 0c0 0 0 0 0 0z m-103 51c0 0 0 0 0 0l-4 2 4-2z m148-581c-4 2-6 2-10 2-27-99-106-196-205-251-214-107-473-26-587 188-107 205-28 464 188 581 104 51 217 53 320 29v-2l10-10v-9l10-10v-10l-10-10v-22l10-10 5-8h28v-17l10-10v-10h10v-10h-10v-10l-10-10v-10h-10v-4l-10-10v-27h10v-18h10v-10l10-10v-10h10v-9h10v-4l10-10v-10h10v-18h9v-18h10v-23l10-10v-28h10v-10l10-10 10-10h63v-10h-2v-9l10-10v-2l10-10v-10l10-10v-10l10-10v-10h9v-17h10v-18l10-10h10v4z m-269 494h10v-18c0 0-10 8-10 18z m323-476v2h6c-2 0-4-2-6-2z m17 29c-17-10-35-17-53-35-10 0-10 0-10 10-18 27-45 63-63 106 0 10 0 18 0 18v10h-71c-10 0-18 10-18 18-10 0-10 10-10 10-10 27-10 53-28 81-17 27-27 45-45 63-10 10-10 10-10 18-10 10-10 18-10 27 18 18 28 36 46 54v10c-10 0-10 10-18 10-28 45-46 81-63 106 6 2 13 2 13 2 18 18 46 28 64 36h35l18-10c0-10 0-18-10-28v-18h-8l-18-9 10-18 8-6v-18l10-8v-10h-10l-10-10v-17h-9v-28h-10v-63l10-10v-10h9l10-10h10v-10h28l10 10h10l9 10h10l10 10h10l10 10h10v10h18l10-10 9-10v-36h-9v-10h-10l-10-9h-10l-16-4h-10l-10-10h-10l-9-10-10-10v-10l-10-10v-18l10-10v-1l10-10 9-10v-10h18v-10h28v-10h28v-10h17l10 10h8v-18h10v-10h10v-9l18-18 10 10h15c2-2 4-4 6-4l6-6h4c4-6 6-12 12-18-2-12-10-22-28-30z m36 97c-10-10-10-10-10-18v-9l-10 9c-2-2-4-4-4-4l-14 4h-27c-10 18-28 36-36 54-10-10-18-10-28-18-35 18-53 28-71 28-17 27-17 45 0 63 10 10 36 18 64 28 27 17 27 35 17 71-17 27-45 35-63 17-28-9-53-27-63-35-28 0-36 10-46 35 0 18 10 46 18 81 10 0 18 10 18 10 0 28-10 46-18 64 10 0 10 9 18 9l18 36c130-49 263-290 237-425z m-358 170l-10 10-8 8-9 10h-10l-18 10-10 10h-10l-10 9h-27l-2 6h-107l-10-10h-18l-10-9h-10l-5-8-18-10h-10l-10-10-10-10-10-10-10-10-10-10-9-9-4-2-8-8v-10l-10-10-10-10v-10l-10-18v-13l-6-20v-99l10-18v-10l10-10v-17l10-10 10-10v-4l10-10 9-18 10-10 10-10 10-9h10l10-10 10-10 10-10h9l10-10 18-10h18l10-10h28l9-10h46l18 10h17l10 10h10l18 10h10l10 10 10 10 17 10h10l10 10 10 9 10 10v10l10 10 10 10 10 18v10l9 10 10 9v28l10 10v18l10 18v53l-24 12v20l-10 17v10l-9 10v10l-10 18-10 10-6 4v9l-10 10-10 10-8 6z m36-79c53-107 10-241-99-304-107-54-249-10-302 99-64 106-18 251 98 304 107 61 242 16 303-99z m-249-18c-46-17-63-81-36-124 18-54 81-71 125-46 53 28 71 81 45 135-27 43-81 61-134 35z m124-108l-8-8v-10l-9-10h-10v-10h-10v-10h-18v-10h-45l-6 14h-18v10h-10v10h-10v10l-6 6v27h-10v18h10v28h10v6l10 10 10 10h10v9h27l10 10h10l10-10h18l10-9h10v-10h9v-10h-2v-18h10v-53z m-114-26l35-18 28 10 36 18v35l9 36-35 28-28 17-37-19-36-18v-71l28-18z m-10 79l27 10 28 18 18-18 28-18-10-28v-17l-18-18-28-10-27 20-18 10v51z m-117 198h10l10-10h18l10 10 10 9v8l9 10-11 8v10l-10 10-10 10h-18l-10-10h-10v-10l-10-10v-18l10-10v-7z m18 43c10 0 18 0 18-10 10-10 0-18 0-18-10-9-18-9-28 0 2 10 2 20 10 28z m45 28h10v10h10v35h-10v8h-10l-7 10h-18l-10-10-10-8v-10l-10-10 10-9v-10l10-10 10-10h18l7 14z m-25 18c-10 9 0 17 0 17 8 10 18 10 25 0 0-10 0-17-9-27-8 2-16 2-16 10z m35 45h10v-10h18l10 10h10v8h10v35h-10v10h-10v8h-28v-10h-10v-10h-10v-35h10v-6z m18 36c0 9 10 9 18 0 0-10 0-18-10-28-10 0-18 0-18 10 0 8 0 18 10 18z m71-518h-18v10l-9-10h-18l-8-10-10-10v-28l10-10v-9h10v-10h35v10h10l10 9v36l-12 12v10z m-18-56c-17 0-27 10-27 18 0 10 10 18 18 18 9 10 17 0 17-10 10-16 0-26-8-26z m-35 287l10 10 10 10v35h-10v10h-10v10h-36v-10h-10l-7-12v-45h9l10-10h34z m-28 53c10 0 18 0 28-10 0-9 0-27-10-27-10-10-18 0-28 10-8 10 2 19 10 27z m206-89v10h18v10l9 10v28l-9 10-10 4h-10v9h-18l-8-9h-10l-10-10v-18h-6v-10h10v-18h10v-10h10l10-10h14z m-28 36c-10 10 0 18 10 28 10 0 18-10 28-18 0-10 0-18-18-18-10-10-20 0-20 8z m-221-117l-10 10-10 10h-36v-10h-9v-10h-10v-35h10v-10l9-10h46v10h10v20l10 10-10 9v6z m-28-35c-10-10-28 0-28 10 0 17 10 27 18 27s18-10 18-17c10-10 0-20-8-20z m312 0l-10 10h-27v-10h-10v-10h-10v-46h10v-9h18l10-10 9 10h18v9h10v46h-10v10h-8z m-10-44c-9-10-17-10-27 0 0 10 0 28 10 28 0 10 17 10 27 0 0-10 0-20-10-28z m170 394c-9-10-27-18-53-36-10-18-10-36-10-36 10-9 18-17 18-9 28 9 45 17 63 35 10 0 10 10 0 28-8 18-18 18-18 18z m28-206c-10 0-18-10-10-18 0-10 10-17 36-27 27 17 45 27 53 35 10 0 10 10 10 28-10 10-18 18-28 18-25-10-43-28-61-36z m-607 61v10h10v28l-10 10-10 10-9 10h-16l-10-14-10-10-10-10v-18h10v-18h10l10-10h18l9 10h8z m-35 10c0 10-10 18 0 28 0 10 10 10 18 0 9 0 9-10 9-18-9-10-19-10-27-10z m61-35v8h-10v9h-35l-8-9v-10l-10-10v-18l10-10 10-10h9l10-10 10 10h10l10 10v10h10v18l-16 12z m-18-18c0-10-10-18-18-10-9 0-9 10-9 18 9 10 17 10 27 10 10-10 10-18 0-18z m-61 124h8l10-10h27l10 10 10 10v28l-10 10-10 10h-37l-10-10v-10l-10-10v-10l10-10v-8z m18 26c0 10 10 18 18 10 9 0 9-10 9-18-9-10-17-10-27-10 0 10-10 18 0 18z m-63-259l-10-10-10-10v-23l10-10 10-10h35v10h10v10l8 8v9l-10 10v10h-8v10h-35z m17-43c-10 0-17 0-17 10 0 9 9 17 9 17 10 0 18 0 18-10 8-9 0-17-10-17z m36-10l-10-10v-18l10-8v-10h10l10-10h10l9 10h10l10 10v10l10 10-10 10v10l-14 6h-10v10h-17l-8-10h-10v-10z m18 0c10 0 17-10 17-18 10-10 0-10-9-18-10 0-18 10-18 18 2 10 10 10 10 18z m-79 63h10v46h-10v9h-46v-9h-8v-46h10l10-10h36v10z m-18 8c-10 0-18 0-18 10 0 10 0 18 10 18 10 0 18 0 18-10-2-8-2-18-10-18z m186-277h10l9 10h10l10 10v36l-10 9h-10v10h-17l-10-11h-10l-10-10v-36l10-10h10l8-8z m-8 46c10 10 18 10 27 0 0 0 0-10 0-18-9-10-17-10-27 0v18z m-99 18l-10 9v10l-10 10h-33v-10h-8v-10h-10v-27l10-10 10-10h35l10 10v10l6 8v10z m-26-18h-18c-9 10-9 18 0 27 0 0 10 0 18 0 8-9 8-19 0-27z m79 18h-35l-10-10v-18h-8l10-10v-8l10-10v-10h35v10h10v10h10v28l-10 10-12 8z m-8-36c0-10-10-10-17-10-10 10-10 18 0 28 9 0 17 10 17 0 8-10 8-18 0-18z m249-46l-9 10h-8l-10 10h-10l-10-10-10-10-10-9v-28h10v-6h10l10-10h20l9 10h10v18h10v10l-10 10v5z m-17-17c0-10-10-18-10-18-10 0-18 10-18 18 0 10 10 17 18 17 10-7 19-7 10-17z m-44-18h-10l-10 10h-15v-10h-10v-8h-10v-18h-10l10-10v-10l10-10 10-9h27v9h10v10l10 10v28h-10v8z m-28-44c-9 0-17 10-9 18 0 10 9 18 17 18 0-10 10-10 10-18 0-10-8-18-18-18z m-45 18h-10v10h-35v-10h-10v-10h-6v-27l10-10 9-10h36l10 10v10l10 9v10l-10 10v8z m-26-35c-10 0-17 9-17 17 0 10 9 10 17 10s18-10 18-18c-10-9-10-9-18-9z m285 71h-10v-10h-10v-28l10-10 10-10h10l10-9 10 9h5l10 10v10l10 10v10h-10v18h-10v10h-27l-8-10z m28-18c9-10 0-18 0-18-10-10-18 0-28 0 0 10 0 18 10 28 8-2 18-2 18-10z m-28-53l-10 9-10 10h-18l-6-12h-9v-9l-10-10v-18l10-10 9-6 10-10h18l10 10 10 10 10 10v10l-10 10v6z m-18-28c-10-10-18-10-28 0 0 10 0 18 10 18 10 10 18 10 18 0 10-8 10-18 0-18z m81 170h-10l-10 10h-17l-10-10h-10v-10h-10v-28l10-9 10-10h10l9-10 10 10h10l10 10v9l10 10v10h-10v18z m-18-36c-10-10-17 0-27 0 0 10 0 18 10 28 9 0 17 0 17-10 8-10 0-18 0-18z m143 8h-46l-8-8v-10l-10-9v-10h10v-18h10v-6h36l10 10v10l9 10v17h-9v14z m-36-43c0 10-10 18 0 18 0 9 10 17 18 9 10 0 10-9 10-17-10-10-18-10-28-10z m-18 134l10-10 10 10h10l10 10 10 10v18l-10 10v9h-10v10h-30l-10-10h-9v-9l-10-10v-18l10-10 9-10h10z m18 44c10-10 10-18 0-28 0 0-10-10-18 0-10 0-10 10-10 18 10 10 20 10 28 10z m28-54h-28l-10-10-8-7v-28l10-10v-8h46v10l9 10v27l-9 10-10 6z m-18-45c-10 0-10 10-10 18 0 10 10 10 18 10 10-10 10-18 10-18 0-10-10-18-18-10z m-198 510h18l10 10h10l10 9v34h-10v10h-10l-10 10h-18v-10h-8v-10h-9v-35l9-10 8-8z m18 53c10-8 10-8 10-18 0-10-10-17-18-17-10 0-10 9-10 17 0 10 10 18 18 18z m-89-89h10l10-10h28v10h9v10l10 10v18h-10v10l-9 9h-18v6l-10-9h-10l-10-10-10-10v-18l10-10v-6z m28 36c10 0 18-10 18-10-10-10-10-18-18-18-10 0-18 10-18 18 0 10 8 20 18 10z" horiz-adv-x="1071" />
<glyph glyph-name="item-6" unicode="&#xe809;" d="M936-33v12 11l-12 12-12 12v534h-21v152 10 11l-10 10v21h-12l-12 12-12 12-12 12h-12l-11 12h-12l-12 12h-12-12l0 5h-21l-12 12h-12-22-12l-16 9h-12-22-12l-19 12h-21-12-21-22-21-22-12-19-21-21-22-12-21-22l-12-12h-21-12-21l-12-12h-19-10-21l-12-9h-10l-12-10h-21-9l-12-12h-10l-12-9h-9l-12-12-10-10-12-12-9-21-12-10v-11-12-150h-22v-538-12h-9v-12l-12-7v-12-12-10-12-12-12-11l12-12 12-12v-12h12v-12h12 12l4 0h12 12 762 12 12l12 12h12 12v12h11l12 12v12h12v11 12 12l12 12v0 12h-12v10z m-76 33h-774v483h12 54 689 21v-483z m-655 688v-183h-107v183c0 7 2 14 9 22 57 0 98-10 98-22z m128 22c65 0 119-12 119-22v-183h-226v174 9c0 12 53 22 107 22z m141-22c0 12 43 22 107 22 55 0 107-12 107-22v-183h-214v183z m236 0c0 12 42 22 107 22 2 0 7 0 12 0 4-8 9-15 9-22v-183h-128v183z m-236 107c140 0 262-26 321-59v-5h-12-12-9-12-12-12v-12h-12-12l-11-12h-12v14h-12 0v10h-12-12-12-12-12-12l-12 12h-12-11-12v-12h0-12-12-12-12-12l-12-12h-12-12v-12h0v14h-11-12l-10 10h-12-12-12-12-11l-12 12h-12-3-12l-9-12h-12-12-12-12-12-11v-12h-5-10v-12h-12v14h-9-12l-10 10h-12-9-12-9-8c60 36 191 64 341 64z m376-893h-762c-12 0-33 22-33 43 0 12 12 22 33 34h55 719c12-12 21-22 21-34-2-21-12-43-33-43z" horiz-adv-x="945" />
</font>
</defs>
</svg>